Week 1 : Statistic in R
…
Dataset 1: Dr. Arbuthnots Baptism Records

Upload dataset in R

To get you started, run the following command to load the data.

data(arbuthnot)

View dataset

arbuthnot

## # A tibble: 82 x 3
##     year  boys girls
##    <int> <int> <int>
##  1  1629  5218  4683
##  2  1630  4858  4457
##  3  1631  4422  4102
##  4  1632  4994  4590
##  5  1633  5158  4839
##  6  1634  5035  4820
##  7  1635  5106  4928
##  8  1636  4917  4605
##  9  1637  4703  4457
## 10  1638  5359  4952
## #  with 72 more rows
…
##  [1]  9901  9315  8524  9584  9997  9855 10034  9522  9160 10311 10150 10850
## [13] 10670 10370  9410  8104  7966  7163  7332  6544  5825  5612  6071  6128
## [25]  6155  6620  7004  7050  6685  6170  5990  6971  8855 10019 10292 11722
## [37]  9972  8997 10938 11633 12335 11997 12510 12563 11895 11851 11775 12399
## [49] 12626 12601 12288 12847 13355 13653 14735 14702 14730 14694 14951 14588
## [61] 14771 15211 15054 14918 15159 13632 13976 14861 15829 16052 15363 14639
## [73] 15616 15687 15448 11851 16145 15369 16066 15862 15220 14928

Create a new column into the dataset

arbuthnot <- arbuthnot %>%
  mutate(total = boys + girls)
arbuthnot

## # A tibble: 82 x 4
##     year  boys girls total
##    <int> <int> <int> <int>
##  1  1629  5218  4683  9901
##  2  1630  4858  4457  9315
##  3  1631  4422  4102  8524
##  4  1632  4994  4590  9584
##  5  1633  5158  4839  9997
##  6  1634  5035  4820  9855
##  7  1635  5106  4928 10034
##  8  1636  4917  4605  9522
##  9  1637  4703  4457  9160
## 10  1638  5359  4952 10311
## #  with 72 more rows
…
Add new column to dataset to check if boys > girls = TRUE

arbuthnot <- arbuthnot %>%
  mutate(more_boys = boys > girls)
arbuthnot

## # A tibble: 82 x 5
##     year  boys girls total more_boys
##    <int> <int> <int> <int> <lgl>    
##  1  1629  5218  4683  9901 TRUE     
##  2  1630  4858  4457  9315 TRUE     
##  3  1631  4422  4102  8524 TRUE     
##  4  1632  4994  4590  9584 TRUE     
##  5  1633  5158  4839  9997 TRUE     
##  6  1634  5035  4820  9855 TRUE     
##  7  1635  5106  4928 10034 TRUE     
##  8  1636  4917  4605  9522 TRUE     
##  9  1637  4703  4457  9160 TRUE     
## 10  1638  5359  4952 10311 TRUE     
## #  with 72 more rows

Dataset 2: Present birth records

Upload dataset into R

data(present)

Open the dataset in R

present

## # A tibble: 74 x 3
##     year    boys   girls
##    <dbl>   <dbl>   <dbl>
##  1  1940 1211684 1148715
##  2  1941 1289734 1223693
##  3  1942 1444365 1364631
##  4  1943 1508959 1427901
##  5  1944 1435301 1359499
##  6  1945 1404587 1330869
##  7  1946 1691220 1597452
##  8  1947 1899876 1800064
##  9  1948 1813852 1721216
## 10  1949 1826352 1733177
## #  with 64 more rows
…
dim(present)

## [1] 74  3

range(present$year)

## [1] 1940 2013

Add new column that sum the boys and girls values

present <- present %>%
        mutate(total = boys + girls)
present

## # A tibble: 74 x 4
##     year    boys   girls   total
##    <dbl>   <dbl>   <dbl>   <dbl>
##  1  1940 1211684 1148715 2360399
##  2  1941 1289734 1223693 2513427
##  3  1942 1444365 1364631 2808996
##  4  1943 1508959 1427901 2936860
##  5  1944 1435301 1359499 2794800
##  6  1945 1404587 1330869 2735456
##  7  1946 1691220 1597452 3288672
##  8  1947 1899876 1800064 3699940
##  9  1948 1813852 1721216 3535068
## 10  1949 1826352 1733177 3559529
## #  with 64 more rows

Add new column that calculate the boys proportion against the total values

present <- present %>%
        mutate(prop_boys = boys/total)
present

## # A tibble: 74 x 5
##     year    boys   girls   total prop_boys
##    <dbl>   <dbl>   <dbl>   <dbl>     <dbl>
##  1  1940 1211684 1148715 2360399     0.513
##  2  1941 1289734 1223693 2513427     0.513
##  3  1942 1444365 1364631 2808996     0.514
##  4  1943 1508959 1427901 2936860     0.514
##  5  1944 1435301 1359499 2794800     0.514
##  6  1945 1404587 1330869 2735456     0.513
##  7  1946 1691220 1597452 3288672     0.514
##  8  1947 1899876 1800064 3699940     0.513
##  9  1948 1813852 1721216 3535068     0.513
## 10  1949 1826352 1733177 3559529     0.513
## #  with 64 more rows
…
Add new column to check if boys > girls = TRUE

present <- present %>%
        mutate(more_boys = boys > girls)
present

## # A tibble: 74 x 6
##     year    boys   girls   total prop_boys more_boys
##    <dbl>   <dbl>   <dbl>   <dbl>     <dbl> <lgl>    
##  1  1940 1211684 1148715 2360399     0.513 TRUE     
##  2  1941 1289734 1223693 2513427     0.513 TRUE     
##  3  1942 1444365 1364631 2808996     0.514 TRUE     
##  4  1943 1508959 1427901 2936860     0.514 TRUE     
##  5  1944 1435301 1359499 2794800     0.514 TRUE     
##  6  1945 1404587 1330869 2735456     0.513 TRUE     
##  7  1946 1691220 1597452 3288672     0.514 TRUE     
##  8  1947 1899876 1800064 3699940     0.513 TRUE     
##  9  1948 1813852 1721216 3535068     0.513 TRUE     
## 10  1949 1826352 1733177 3559529     0.513 TRUE     
## #  with 64 more rows

Add new column that shows the proportion of boys against girls

present <- present %>%
        mutate(prop_boy_girl = boys/girls)
present

## # A tibble: 74 x 7
##     year    boys   girls   total prop_boys more_boys prop_boy_girl
##    <dbl>   <dbl>   <dbl>   <dbl>     <dbl> <lgl>             <dbl>
##  1  1940 1211684 1148715 2360399     0.513 TRUE               1.05
##  2  1941 1289734 1223693 2513427     0.513 TRUE               1.05
##  3  1942 1444365 1364631 2808996     0.514 TRUE               1.06
##  4  1943 1508959 1427901 2936860     0.514 TRUE               1.06
##  5  1944 1435301 1359499 2794800     0.514 TRUE               1.06
##  6  1945 1404587 1330869 2735456     0.513 TRUE               1.06
##  7  1946 1691220 1597452 3288672     0.514 TRUE               1.06
##  8  1947 1899876 1800064 3699940     0.513 TRUE               1.06
##  9  1948 1813852 1721216 3535068     0.513 TRUE               1.05
## 10  1949 1826352 1733177 3559529     0.513 TRUE               1.05
## #  with 64 more rows

Rearrange the column total in descending

present %>% arrange(desc(total))

## # A tibble: 74 x 7
##     year    boys   girls   total prop_boys more_boys prop_boy_girl
##    <dbl>   <dbl>   <dbl>   <dbl>     <dbl> <lgl>             <dbl>
##  1  2007 2208071 2108162 4316233     0.512 TRUE               1.05
##  2  1961 2186274 2082052 4268326     0.512 TRUE               1.05
##  3  2006 2184237 2081318 4265555     0.512 TRUE               1.05
##  4  1960 2179708 2078142 4257850     0.512 TRUE               1.05
##  5  1957 2179960 2074824 4254784     0.512 TRUE               1.05
##  6  2008 2173625 2074069 4247694     0.512 TRUE               1.05
##  7  1959 2173638 2071158 4244796     0.512 TRUE               1.05
##  8  1958 2152546 2051266 4203812     0.512 TRUE               1.05
##  9  1962 2132466 2034896 4167362     0.512 TRUE               1.05
## 10  1956 2133588 2029502 4163090     0.513 TRUE               1.05
## #  with 64 more rows
